import React, { useState, useEffect } from 'react';
import {
  View,
  Text,
  TouchableOpacity,
  StyleSheet,
  Modal,
  Dimensions,
  Platform,
  TextInput,
  KeyboardAvoidingView,
  ScrollView,
  Keyboard,
} from 'react-native';
import { BlurView } from '@react-native-community/blur';

const { width } = Dimensions.get('window');

const MobileVerificationPopup = ({close,mobileVerificationPopup}) => {
  const [mobileNumber, setMobileNumber] = useState("");
  const [isKeyboardVisible, setKeyboardVisible] = useState(false);



  return (
    <Modal
      visible={mobileVerificationPopup}
      transparent={true}
      animationType="slide"
      onRequestClose={() => close(false)}
    >
      <KeyboardAvoidingView
        behavior={Platform.OS === "ios" ? "padding" : "height"}
        style={styles.container}
      >
        {/* Blur Background */}
          <BlurView
            style={styles.blurView}
            blurType="light"
            blurAmount={5}
            reducedTransparencyFallbackColor="rgba(0,0,0,0.4)"
          />
          <View style={styles.androidBlur} />

        <TouchableOpacity
          style={styles.backdrop}
          activeOpacity={0.5}
          onPress={() => {
            close(false);
            Keyboard.dismiss();
          }}
        />

        {/* Modal Sheet */}
        <ScrollView
          contentContainerStyle={styles.scrollContent}
          keyboardShouldPersistTaps="handled"
          showsVerticalScrollIndicator={false}
        >
          <View style={styles.modalSheet}>

            {/* Content */}
            <View style={styles.content}>
              {/* Title */}
              <Text style={styles.title}>
                Lastly, Verify your{"\n"}mobile number
              </Text>

              {/* Description */}
              <Text style={styles.description}>
                To enhance security, we need to verify.
              </Text>
              <Text style={[styles.description,{marginBottom:35}]}>
                 your mobile number
              </Text>

              {/* Input Section */}
              <View style={styles.inputSection}>
                <Text style={styles.inputLabel}>Mobile Number</Text>
                <TextInput
                  style={styles.input}
                  placeholder="Enter your mobile number"
                  placeholderTextColor="#9CA3AF"
                  value={mobileNumber}
                  onChangeText={setMobileNumber}
                  keyboardType="phone-pad"
                  returnKeyType="done"
                />
              </View>

              {/* Verify Button */}
              <TouchableOpacity
                style={[
                  styles.verifyButton,
                  !mobileNumber && styles.verifyButtonDisabled,
                ]}
                onPress={() => {
                  console.log("Verify pressed");
                }}
                activeOpacity={0.8}
                disabled={!mobileNumber}
              >
                <Text style={styles.verifyButtonText}>Verify</Text>
              </TouchableOpacity>

              {/* Skip for now */}
              <TouchableOpacity
                style={styles.skipButton}
                onPress={() => close(false)}
                activeOpacity={0.7}
              >
                <Text style={styles.skipButtonText}>Skip for now</Text>
              </TouchableOpacity>

              {/* Note */}
              <View style={[styles.noteContainer,{marginBottom:50}]}>
                <Text style={styles.noteText}>
                  <Text style={styles.noteBold}>Note:</Text> You can skip this
                  step for now — but verification will be required within 7 days
                  to continue using Elunara.
                </Text>
              </View>
            </View>
          </View>
        </ScrollView>
      </KeyboardAvoidingView>
    </Modal>
  );
};

const styles = StyleSheet.create({
  container: {
    flex: 1,
    justifyContent: 'flex-end',
  },
  blurView: {
    position: 'absolute',
    top: 0,
    left: 0,
    right: 0,
    bottom: 0,
  },
  androidBlur: {
    position: 'absolute',
    top: 0,
    left: 0,
    right: 0,
    bottom: 0,
    backgroundColor: 'rgba(0, 0, 0, 0.4)',
  },
  backdrop: {
    position: 'absolute',
    top: 0,
    left: 0,
    right: 0,
    bottom: 0,
  },
  scrollContent: {
    flexGrow: 1,
    justifyContent: 'flex-end',
  },
  modalSheet: {
    backgroundColor: '#ffffffff',
    borderTopLeftRadius: 30,
    borderTopRightRadius: 30,
    shadowColor: '#000',
    shadowOffset: {
      width: 0,
      height: -4,
    },
    shadowOpacity: 0.15,
    shadowRadius: 12,
    elevation: 20,
    marginBottom:0
  },
  content: {
    paddingHorizontal: 24,
    paddingTop: 24,
  },
  title: {
    fontSize: 23,
    fontWeight: '700',
    color: '#1F2937',
    marginBottom: 5,
    lineHeight: 36,
    letterSpacing: -0.5,
  },
  description: {
    fontSize: 11,
    lineHeight: 24,
    color: '#6B7280',
    letterSpacing: 0.2,
  },
  inputSection: {
    marginBottom: 24,
  },
  inputLabel: {
    fontSize: 10,
    fontWeight: '600',
    color: '#374151',
    marginBottom: 8,
    letterSpacing: 0.1,
  },
  input: {
    backgroundColor: '#FFFFFF',
    borderWidth: 1.5,
    borderColor: '#D1D5DB',
    borderRadius: 15,
    paddingHorizontal: 16,
    paddingVertical: 12,
    fontSize: 10,
    color: '#1F2937',
    letterSpacing: 0.2,
  },
  verifyButton: {
    backgroundColor: '#081A35',
    paddingVertical: 13,
    borderRadius: 50,
    alignItems: 'center',
    justifyContent: 'center',
    marginBottom: 16,
  },
  verifyButtonDisabled: {
    backgroundColor: '#E5E7EB',
  },
  verifyButtonText: {
    color: '#FFFFFF',
    fontSize: 11,
    fontWeight: '500',
    letterSpacing: 0.3,
  },
  skipButton: {
    alignItems: 'center',
    paddingVertical: 12,
    marginBottom: 10,
  },
  skipButtonText: {
    color: '#0F172A',
    fontSize: 10,
    fontWeight: '600',
    textDecorationLine: 'underline',
    letterSpacing: 0.2,
  },
  noteContainer: {
    paddingHorizontal: 16,
    borderRadius: 8,

  },
  noteText: {
    fontSize: 9,
    lineHeight: 20,
    color: '#6B7280',
    letterSpacing: 0.1,
  },
  noteBold: {
    fontWeight: '700',
    color: '#374151',
  },
});

export default MobileVerificationPopup;


// Responsive scaling functions
const scale = (size) => (width / 375) * size;
const verticalScale = (size) => (height / 812) * size;
const moderateScale = (size, factor = 0.5) => size + (scale(size) - size) * factor;


{
  "assistant_message": {
    "added_to_notes": null, 
    "content": "I apologize, but I encountered an error while generating a response. Please try again.",
     "content_type": "markdown", 
     "created_at": "2026-01-17T10:58:41.000000Z",
      "generation": {
        "language": null,
         "llm": null,
          "style": null
          }, 
          "id": "c3efe76e-fb97-431a-981f-439547f9359c",
           "is_active_version": true,
            "role": "assistant", 
            "sources": null,
             "total_versions": 1, 
             "version": 1
             }, 
             "user_message": {
              "added_to_notes": null,
               "content": "Hello",
                "content_type": "text",
                 "created_at": "2026-01-17T10:58:41.000000Z", 
                 "id": "5f45b7f3-9e87-401e-9f7d-f19f8c27fe8e", 
                 "role": "user"
                 }
                 }


                 {
    "chats": [
      {
        "id": "1ab7b631-ca28-4587-a0f2-474d98fd11bc",
        "name": "Marketing for Non-profit organizations",
        "subject": {
          "id": 2,
          "name": "Marketing"
        },
        "room": null,
        "is_archived": false,
        "last_message_at": "2026-01-29T10:47:58.000000Z"
      },
      {
        "id": "7c50be12-8504-4d4c-9aa3-374281c37e56",
        "name": "Marketing for Non-profit organizations",
        "subject": {
          "id": 2,
          "name": "Marketing"
        },
        "room": null,
        "is_archived": false,
        "last_message_at": null
      },
      {
        "id": "5ea0a4d6-016a-4c54-bfdb-4bacb330e503",
        "name": "International Marketing",
        "subject": {
          "id": 2,
          "name": "Marketing"
        },
        "room": null,
        "is_archived": false,
        "last_message_at": null
      },
      {
        "id": "8326a0a1-b53d-44be-a997-03e5676721a7",
        "name": "Marketing for Non-profit organizations",
        "subject": {
          "id": 2,
          "name": "Marketing"
        },
        "room": null,
        "is_archived": false,
        "last_message_at": null
      },
      {
        "id": "d41914c9-2569-407f-acf7-938e71e7b454",
        "name": "International Marketing",
        "subject": {
          "id": 2,
          "name": "Marketing"
        },
        "room": null,
        "is_archived": false,
        "last_message_at": "2026-01-30T06:08:20.000000Z"
      }
    ],
    "rooms": [],
    "messages": [
      {
        "id": "7f0fa64c-7101-4f93-b107-986769f63a29",
        "chat": {
          "id": "15437b0a-446a-40a2-94b0-767237f136cb",
          "name": "Chatting with AI"
        },
        "role": "assistant",
        "snippet": "...es in other languages, I'm designed to respond primarily in English to help with learning and educational content. \n\nHow can I help you learn somethin...",
        "created_at": "2026-01-29T06:01:56.000000Z"
      },
      {
        "id": "5cdf5efc-fafb-4ef0-874a-fa4295f7bb98",
        "chat": {
          "id": "1ab7b631-ca28-4587-a0f2-474d98fd11bc",
          "name": "Marketing for Non-profit organizations"
        },
        "role": "user",
        "snippet": "Marketing for Non-profit organizations",
        "created_at": "2026-01-29T10:47:45.000000Z"
      },
      {
        "id": "e3e82f36-9c15-4289-a112-333426ee003c",
        "chat": {
          "id": "1ab7b631-ca28-4587-a0f2-474d98fd11bc",
          "name": "Marketing for Non-profit organizations"
        },
        "role": "assistant",
        "snippet": "# Marketing for Non-Profit Organizations\n\nMarketing for non-profits is fundamentally different from for-profit marketing, as it focuses on mission-dri...",
        "created_at": "2026-01-29T10:47:58.000000Z"
      },
      {
        "id": "4a1f52c5-65d1-4aab-98ec-63b98b14714f",
        "chat": {
          "id": "05e7798a-6c40-4a61-80a1-9bbde47c5803",
          "name": "Chatting with AI"
        },
        "role": "assistant",
        "snippet": "...of management, including Business Administration, Marketing, Finance, Human Resources, Operations, Strategy, and related disciplines.\n\nWhether you're ...",
        "created_at": "2026-01-30T05:10:17.000000Z"
      },
      {
        "id": "bfd91b6f-a6a8-4351-8416-9ece44ec111e",
        "chat": {
          "id": "d41914c9-2569-407f-acf7-938e71e7b454",
          "name": "International Marketing"
        },
        "role": "user",
        "snippet": "International Marketing",
        "created_at": "2026-01-30T05:16:50.000000Z"
      }
    ]
  },
  "searchHistory": [],
  "meta": {
    "query": "mar",
    "type": "all",
    "page": 1,
    "per_page": 5,
    "total_chats": 10,
    "total_rooms": 0,
    "total_messages": 49,
    "pagination": {
      "chats": {
        "current_page": 1,
        "per_page": 5,
        "total": 10,
        "last_page": 2
      },
      "rooms": {
        "current_page": 1,
        "per_page": 5,
        "total": 0,
        "last_page": 1
      },
      "messages": {
        "current_page": 1,
        "per_page": 5,
        "total": 49,
        "last_page": 10
      }
    }
  },
  "isSearching": false,
  "fetchingHistory": false,
  "clearingHistory": false
}